Output from simulation/alu.vcd
$date
	Tue Mar 19 00:41:47 2024
$end

$version
	Synopsys VCS version V-2023.12
$end

$timescale
	1s
$end

$comment Csum: 1 958ca9d864d99e14 $end


$scope module uvm_pkg $end
$var time 64 ! setting_offset $end
$var reg 32 " uvm_global_random_seed [31:0] $end
$var reg 32 # UVM_UNBOUNDED_CONNECTIONS [31:0] $end
$var reg 1 $ uvm_start_uvm_declarations $end
$var reg 32 % setting_verbosity [31:0] $end
$var reg 1 & is_verdi_set_verbosity_called $end
$upscope $end


$scope module $unit $end
$upscope $end


$scope module _vcs_msglog $end
$var reg 32 ' _MSG_T [31:0] $end
$var reg 32 ( _MSG_S [31:0] $end
$var reg 32 ) _MSG_R [31:0] $end
$upscope $end


$scope module uvm_custom_install_recording $end
$var reg 32 * file_handle [31:0] $end
$var reg 32 + is_sanity_exist [31:0] $end

$scope begin unnamed$$_vcs_2 $end

$scope begin unnamed$$_0 $end
$upscope $end

$upscope $end

$upscope $end


$scope module top $end
$var reg 1 , clk $end

$scope begin unnamed$$_vcs_2 $end
$upscope $end


$scope begin unnamed$$_vcs_0 $end
$upscope $end


$scope begin unnamed$$_vcs_1 $end
$upscope $end


$scope begin unnamed$$_vcs_3 $end
$upscope $end


$scope begin unnamed$$_vcs_4 $end
$upscope $end


$scope module intf $end
$var reg 1 - clk $end
$var reg 1 . reset $end
$var reg 8 / a [7:0] $end
$var reg 8 0 b [7:0] $end
$var reg 4 1 op_code [3:0] $end
$var reg 8 2 result [7:0] $end
$var reg 1 3 carry $end
$upscope $end


$scope module dut $end
$var reg 9 4 result_temp [8:0] $end
$upscope $end

$upscope $end

$enddefinitions $end

#0
$dumpvars
0&
1$
bxxxxxxxxxxxxxxxxxxxxxxxxxxxxxxxxxxxxxxxxxxxxxxxxxxxxxxxxxxxxxxxx !
b11111111111111111111111111111111 #
b00000000000000000000000000000000 %
b01000010000001111100110001000111 "
b00000000000000000000000000000000 )
b00000000000000000000000000000000 (
b00000000000000000000000000000000 '
b00000000000000000000000000000000 *
b00000000000000000000000000000000 +
0,
bxxxxxxxx 2
bxxxx 1
bxxxxxxxx 0
bxxxxxxxx /
bxxxxxxxxx 4
0-
03
x.
$end
#5
1,
1-
1.
b00010100 /
b00001000 0
b0011 1
b00000000 2
b000000010 4
#10
0,
0-
#15
1,
1-
0.
b00010000 /
b00000011 0
b0001 1
b000001101 4
#20
0,
0-
#25
1,
1-
b00000101 0
b0010 1
b00001101 2
b001010000 4
#30
0,
0-
#35
1,
1-
b00001101 /
b00000011 0
b01010000 2
b000100111 4
#40
0,
0-
#45
1,
1-
b00001111 /
b00001000 0
b00100111 2
b001111000 4
#50
0,
0-
#55
1,
1-
b00010010 /
b00001001 0
b0011 1
b01111000 2
b000000010 4
#60
0,
0-
#65
1,
1-
b00000011 0
b0000 1
b00000010 2
b000010101 4
#70
0,
0-
#75
1,
1-
b00001011 /
b00000101 0
b00010101 2
b000010000 4
#80
0,
0-
#85
1,
1-
b00010000 /
b00000110 0
b0011 1
b00010000 2
b000000010 4
#90
0,
0-
#95
1,
1-
b00001111 /
b00000100 0
b0010 1
b00000010 2
b000111100 4
#100
0,
0-
#105
1,
1-
b00010000 /
b00001000 0
b0000 1
b00111100 2
b000011000 4
#110
0,
0-
#115
1,
1-
b00001100 /
b00000100 0
b0001 1
b00011000 2
b000001000 4
#120
0,
0-
#125
1,
1-
b00001011 /
b00000110 0
b0000 1
b00001000 2
b000010001 4
#130
0,
0-
#135
1,
1-
b00001111 /
b00001000 0
b0010 1
b00010001 2
b001111000 4
#140
0,
0-
#145
1,
1-
b00001110 /
b00000101 0
b0000 1
b01111000 2
b000010011 4
#150
0,
0-
#155
1,
1-
b00010001 /
b00001000 0
b0010 1
b00010011 2
b010001000 4
#160
0,
0-
#165
1,
1-
b00001110 /
b00000101 0
b0001 1
b10001000 2
b000001001 4
#170
0,
0-
#175
1,
1-
b00001101 /
b00000111 0
b0011 1
b00001001 2
b000000001 4
#180
0,
0-
#185
1,
1-
b00001011 /
b00000011 0
b0001 1
b00000001 2
b000001000 4
#190
0,
0-
#195
1,
1-
b00010000 /
b00000111 0
b0011 1
b00001000 2
b000000010 4
#200
0,
0-
#205
1,
1-
b00001011 /
b00000010 0
b0001 1
b00000010 2
b000001001 4
#210
0,
0-
#215
1,
1-
b00001010 /
b00000101 0
b0011 1
b00001001 2
b000000010 4
#220
0,
0-
#225
1,
1-
b00001101 /
b00000010 2
#230
0,
0-
#235
1,
1-
b00010001 /
b00001010 0
b0010 1
b010101010 4
#240
0,
0-
#245
1,
1-
b00001111 /
b00001001 0
b0011 1
b10101010 2
b000000001 4
#250
0,
0-
#255
1,
1-
b00010001 /
b00000010 0
b0001 1
b00000001 2
b000001111 4
#260
0,
0-
#265
1,
1-
b00010010 /
b00000111 0
b0000 1
b00001111 2
b000011001 4
#270
0,
0-
#275
1,
1-
b00010011 /
b00001001 0
b0001 1
b00011001 2
b000001010 4
#280
0,
0-
#285
1,
1-
b00010000 /
b00000001 0
b0000 1
b00001010 2
b000010001 4
#290
0,
0-
#295
1,
1-
b00010011 /
b00000110 0
b0010 1
b00010001 2
b001110010 4
#300
0,
0-
#305
1,
1-
b00001110 /
b00001010 0
b0001 1
b01110010 2
b000000100 4
#310
0,
0-
#315
1,
1-
b00001010 /
b00001000 0
b0011 1
b00000100 2
b000000001 4
#320
0,
0-
#325
1,
1-
b00010010 /
b00000001 0
b0010 1
b00000001 2
b000010010 4
#330
0,
0-
#335
1,
1-
b00010100 /
b00000100 0
b0011 1
b00010010 2
b000000101 4
#340
0,
0-
#345
1,
1-
b00001111 /
b00001001 0
b0010 1
b00000101 2
b010000111 4
#350
0,
0-
#355
1,
1-
b00001010 /
b00000010 0
b0011 1
b10000111 2
b000000101 4
#360
0,
0-
#365
1,
1-
b00001111 /
b00001000 0
b0000 1
b00000101 2
b000010111 4
#370
0,
0-
#375
1,
1-
b00001011 /
b00001010 0
b00010111 2
b000010101 4
#380
0,
0-
#385
1,
1-
b00010001 /
b00000110 0
b00010101 2
b000010111 4
#390
0,
0-
#395
1,
1-
b00001110 /
b00000001 0
b0001 1
b00010111 2
b000001101 4
#400
0,
0-
#405
1,
1-
b00010000 /
b00000101 0
b00001101 2
b000001011 4
#410
0,
0-
#415
1,
1-
b00010001 /
b00001010 0
b0000 1
b00001011 2
b000011011 4
#420
0,
0-
#425
1,
1-
b00001100 /
b00000101 0
b00011011 2
b000010001 4
#430
0,
0-
#435
1,
1-
b00010000 /
b0010 1
b00010001 2
b001010000 4
#440
0,
0-
#445
1,
1-
b00010010 /
b00000100 0
b01010000 2
b001001000 4
#450
0,
0-
#455
1,
1-
b00001101 /
b00000011 0
b01001000 2
b000100111 4
#460
0,
0-
#465
1,
1-
b00010001 /
b00000110 0
b0011 1
b00100111 2
b000000010 4
#470
0,
0-
#475
1,
1-
b00010010 /
b00000010 0
b00000010 2
b000001001 4
#480
0,
0-
#485
1,
1-
b00001011 /
b00000111 0
b0000 1
b00001001 2
b000010010 4
#490
0,
0-
#495
1,
1-
b00001010 /
b0001 1
b00010010 2
b000000011 4
#500
0,
0-
#505
1,
1-
b00001100 /
b00000101 0
b00000011 2
b000000111 4
#510
0,
0-
#515
1,
1-
b00010010 /
b00001010 0
b0010 1
b00000111 2
b010110100 4
#520
0,
0-
#525
1,
1-
b00010100 /
b00000101 0
b0000 1
b10110100 2
b000011001 4
#530
0,
0-
#535
1,
1-
b00001010 /
b00000011 0
b0011 1
b00011001 2
b000000011 4
#540
0,
0-
#545
1,
1-
b00010010 /
b00000010 0
b0010 1
b00000011 2
b000100100 4
#550
0,
0-
#555
1,
1-
b00010100 /
b00001001 0
b0000 1
b00100100 2
b000011101 4
#560
0,
0-
#565
1,
1-
b00000101 0
b0011 1
b00011101 2
b000000100 4
#570
0,
0-
#575
1,
1-
b00010001 /
b00000110 0
b0010 1
b00000100 2
b001100110 4
#580
0,
0-
#585
1,
1-
b00001010 /
b00001010 0
b0001 1
b01100110 2
b000000000 4
#590
0,
0-
#595
1,
1-
b00001110 /
b00000011 0
b0010 1
b00000000 2
b000101010 4
#600
0,
0-
#605
1,
1-
b00001100 /
b00000001 0
b0001 1
b00101010 2
b000001011 4
#610
0,
0-
#615
1,
1-
b00001101 /
b00001001 0
b0000 1
b00001011 2
b000010110 4
#620
0,
0-
#625
1,
1-
b00001110 /
b00001010 0
b0001 1
b00010110 2
b000000100 4
#630
0,
0-
#635
1,
1-
b00001011 /
b00000011 0
b0011 1
b00000100 2
b000000011 4
#640
0,
0-
#645
1,
1-
b00010010 /
b00001001 0
b0000 1
b00000011 2
b000011011 4
#650
0,
0-
#655
1,
1-
b00010000 /
b00000110 0
b0011 1
b00011011 2
b000000010 4
#660
0,
0-
#665
1,
1-
b00001011 /
b00000101 0
b0000 1
b00000010 2
b000010000 4
#670
0,
0-
#675
1,
1-
b00001010 /
b0001 1
b00010000 2
b000000101 4
#680
0,
0-
#685
1,
1-
b00010011 /
b00001001 0
b00000101 2
b000001010 4
#690
0,
0-
#695
1,
1-
b00001100 /
b00000101 0
b00001010 2
b000000111 4
#700
0,
0-
#705
1,
1-
b00001101 /
b00000010 0
b0011 1
b00000111 2
b000000110 4
#710
0,
0-
#715
1,
1-
b00010100 /
b00000100 0
b0010 1
b00000110 2
b001010000 4
#720
0,
0-
#725
1,
1-
b00010001 /
b00000101 0
b0001 1
b01010000 2
b000001100 4
#730
0,
0-
#735
1,
1-
b00001011 /
b00001010 0
b0010 1
b00001100 2
b001101110 4
#740
0,
0-
#745
1,
1-
b00010100 /
b00000101 0
b01101110 2
b001100100 4
#750
0,
0-
#755
1,
1-
b00010010 /
b00000100 0
b01100100 2
b001001000 4
#760
0,
0-
#765
1,
1-
b00001010 /
b00000010 0
b0001 1
b01001000 2
b000001000 4
#770
0,
0-
#775
1,
1-
b00001100 /
b00000011 0
b0000 1
b00001000 2
b000001111 4
#780
0,
0-
#785
1,
1-
b00001110 /
b00001010 0
b0011 1
b00001111 2
b000000001 4
#790
0,
0-
#795
1,
1-
b00010011 /
b00000011 0
b0001 1
b00000001 2
b000010000 4
#800
0,
0-
#805
1,
1-
b00001111 /
b00000111 0
b00010000 2
b000001000 4
#810
0,
0-
#815
1,
1-
b00010001 /
b00000100 0
b0011 1
b00001000 2
b000000100 4
#820
0,
0-
#825
1,
1-
b00010100 /
b00000101 0
b00000100 2
#830
0,
0-
#835
1,
1-
b00001110 /
b00000011 0
#840
0,
0-
#845
1,
1-
b00001100 /
b00000001 0
b0001 1
b000001011 4
#850
0,
0-
#855
1,
1-
b00000111 0
b00001011 2
b000000101 4
#860
0,
0-
#865
1,
1-
b00010011 /
b00000010 0
b0011 1
b00000101 2
b000001001 4
#870
0,
0-
#875
1,
1-
b00001111 /
b0001 1
b00001001 2
b000001101 4
#880
0,
0-
#885
1,
1-
b00010000 /
b00001010 0
b0010 1
b00001101 2
b010100000 4
#890
0,
0-
#895
1,
1-
b00001011 /
b00000001 0
b0011 1
b10100000 2
b000001011 4
#900
0,
0-
#905
1,
1-
b00001101 /
b00001000 0
b0010 1
b00001011 2
b001101000 4
#910
0,
0-
#915
1,
1-
b00010011 /
b00001010 0
b01101000 2
b010111110 4
#920
0,
0-
#925
1,
1-
b00010100 /
b00000100 0
b0001 1
b10111110 2
b000010000 4
#930
0,
0-
#935
1,
1-
b00010000 /
b00000011 0
b0000 1
b00010000 2
b000010011 4
#940
0,
0-
#945
1,
1-
b00010100 /
b00001001 0
b0010 1
b00010011 2
b010110100 4
#950
0,
0-
#955
1,
1-
b00010011 /
b00001010 0
b0011 1
b10110100 2
b000000001 4
#960
0,
0-
#965
1,
1-
b00010000 /
b00000010 0
b0010 1
b00000001 2
b000100000 4
#970
0,
0-
#975
1,
1-
b00001011 /
b00001000 0
b0001 1
b00100000 2
b000000011 4
#980
0,
0-
#985
1,
1-
b00001010 /
b00000100 0
b0011 1
b00000011 2
b000000010 4
#990
0,
0-
#995
1,
1-
b00010010 /
b00000111 0
b0001 1
b00000010 2
b000001011 4
#1000
0,
0-
#1005
1,
1-
b00010011 /
b0000 1
b00001011 2
b000011010 4
